<?xml version="1.0" encoding="iso-8859-1"?>
<!-- Generator: Adobe Illustrator 19.1.0, SVG Export Plug-In . SVG Version: 6.00 Build 0)  -->
<svg version="1.1" id="&#x421;&#x43B;&#x43E;&#x439;_1"
	 xmlns="http://www.w3.org/2000/svg" xmlns:xlink="http://www.w3.org/1999/xlink" x="0px" y="0px" viewBox="0 0 815.499 488.239"
	 style="enable-background:new 0 0 815.499 488.239;" xml:space="preserve">
<g>
	<rect x="370.333" y="245.145" transform="matrix(-0.4995 0.8663 -0.8663 -0.4995 789.2602 79.9613)" width="2.4" height="45.628"/>
	<rect x="311.061" y="279.366" width="2.4" height="45.628"/>
	<rect x="470.099" y="245.145" transform="matrix(-0.4996 0.8663 -0.8663 -0.4996 938.87 -6.4545)" width="2.4" height="45.628"/>
	
		<rect x="370.333" y="313.587" transform="matrix(-0.4996 -0.8663 0.8663 -0.4996 265.7322 826.3075)" width="2.4" height="45.628"/>
	
		<rect x="470.099" y="313.587" transform="matrix(-0.4996 -0.8663 0.8663 -0.4996 415.3397 912.7317)" width="2.4" height="45.628"/>
	<polygon points="299.975,450.056 291.577,453.794 292.2,455.706 300.978,451.798 	"/>
	<polygon points="285.519,424.965 282.603,426.262 283.226,428.174 286.523,426.707 	"/>
	<polygon points="290.338,433.328 285.594,435.44 286.218,437.351 291.341,435.071 	"/>
	<polygon points="295.156,441.692 288.586,444.617 289.209,446.529 296.16,443.435 	"/>
	<polygon points="297.559,472.148 298.183,474.06 310.615,468.526 309.612,466.783 	"/>
	<polygon points="304.793,458.42 294.568,462.971 295.191,464.883 305.797,460.162 	"/>
	
		<rect x="156.103" y="348.215" transform="matrix(-0.9484 -0.3171 0.3171 -0.9484 237.6478 737.5049)" width="45.466" height="2.4"/>
	<rect x="489.857" y="106.566" width="2.4" height="45.628"/>
	<polygon points="119.73,292.572 121.732,292.856 123.631,286.456 121.798,285.601 	"/>
	<polygon points="100.511,289.843 102.513,290.128 106.035,278.256 104.202,277.401 	"/>
	<polygon points="129.339,293.936 131.341,294.22 132.428,290.555 130.595,289.701 	"/>
	<polygon points="110.121,291.208 112.122,291.492 114.833,282.355 113,281.501 	"/>
	<rect x="408.971" y="93.959" transform="matrix(0.866 -0.5 0.5 0.866 10.2687 228.6411)" width="45.628" height="2.4"/>
	
		<rect x="51.743" y="285.601" transform="matrix(-0.6884 -0.7253 0.7253 -0.6884 -131.2412 552.0081)" width="2.4" height="37.184"/>
	<polygon points="178.677,249.782 178.054,252.913 179.975,253.506 180.679,249.967 	"/>
	<polygon points="188.287,250.668 187.275,255.759 189.196,256.352 190.29,250.852 	"/>
	<polygon points="197.898,251.553 196.495,258.606 198.416,259.199 199.9,251.738 	"/>
	<polygon points="207.637,262.046 209.511,252.623 207.509,252.439 205.716,261.453 	"/>
	<polygon points="226.078,267.739 228.732,254.394 226.73,254.21 224.157,267.146 	"/>
	<polygon points="216.857,264.893 219.122,253.509 217.119,253.324 214.936,264.3 	"/>
	<polygon points="300.231,103.382 299.902,105.382 303.885,105.382 303.555,103.382 	"/>
	<polygon points="298.319,114.982 305.467,114.982 305.137,112.982 298.649,112.982 	"/>
	<polygon points="296.737,124.582 307.049,124.582 306.719,122.582 297.067,122.582 	"/>
	<polygon points="295.155,134.182 308.631,134.182 308.302,132.182 295.484,132.182 	"/>
	<polygon points="183.959,84.578 182.377,83.317 177.307,92.109 179.19,92.848 	"/>
	<polygon points="176.365,78.524 174.783,77.263 168.268,88.56 170.151,89.299 	"/>
	<polygon points="191.553,90.632 189.971,89.371 186.346,95.658 188.228,96.397 	"/>
	<polygon points="199.147,96.686 197.565,95.425 195.384,99.207 197.267,99.946 	"/>
	<polygon points="258.606,19.98 258.814,17.98 245.206,17.98 245.414,19.98 	"/>
	<polygon points="257.814,27.58 246.206,27.58 246.414,29.58 257.606,29.58 	"/>
	<polygon points="256.814,37.18 247.206,37.18 247.414,39.18 256.606,39.18 	"/>
	<polygon points="254.814,56.38 249.206,56.38 249.414,58.38 254.606,58.38 	"/>
	<polygon points="253.606,67.98 253.814,65.98 250.206,65.98 250.414,67.98 	"/>
	<polygon points="255.814,46.78 248.206,46.78 248.414,48.78 255.606,48.78 	"/>
	<path d="M551.308,358.394l-48.683-28.107v-56.214l32.49-18.758l-1.199-2.079l-32.491,18.759l-48.683-28.107l0-38.064h-2.4l0,38.064
		l-48.683,28.107l-48.683-28.107v-38.065h-2.4v38.065l-48.683,28.107l-49.284-28.454l-1.199,2.079l49.283,28.453l0,56.373
		l-26.557,23.912l1.606,1.783l26.306-23.686l48.373,27.928l-11.613,54.636l-55.55,5.839l-14.281-32.075l-2.193,0.976l13.765,30.917
		l-40.682-5.517l0.073,14.4l42.581-6.217l-0.006-1.2l0.127,1.193l50.302-5.287l27.364,30.391l1.783-1.606l-26.197-29.094
		l2.043-0.215v0l1.989-0.209l0.865-0.092l0.182-0.851l0.416-1.956l0.427-2.009l26.197,29.095l1.783-1.606l-27.364-30.39
		l10.405-48.953l48.821-28.186l48.683,28.107v35.712h2.4v-35.712l48.683-28.107l49.283,28.454l0.599,0.346l0.599-0.346
		l33.091-19.105l-1.199-2.079L551.308,358.394z M301.892,330.98L301.892,330.98L301.892,330.98L301.892,330.98z M301.893,273.38
		L301.893,273.38L301.893,273.38L301.893,273.38z M351.776,244.58L351.776,244.58L351.776,244.58L351.776,244.58z M400.459,330.287
		l-48.683,28.107l-48.683-28.107l0-56.214l48.683-28.107l48.683,28.107V330.287z M451.542,244.58L451.542,244.58L451.542,244.58
		L451.542,244.58z M401.659,273.38L401.659,273.38L401.659,273.38L401.659,273.38z M500.225,330.287l-48.683,28.107l-48.683-28.107
		v-56.214l48.683-28.107l48.683,28.107V330.287z M501.425,273.38L501.425,273.38L501.425,273.38L501.425,273.38z"/>
	<rect x="549.149" y="338.552" transform="matrix(-0.866 0.5 -0.5 -0.866 1224.6676 351.3616)" width="32.224" height="2.4"/>
	<rect x="616.723" y="344.181" transform="matrix(-0.866 -0.5 0.5 -0.866 995.6839 957.5582)" width="18.819" height="2.4"/>
	<polygon points="702.089,444.142 700.956,444.795 653.405,417.341 652.273,416.688 652.274,379.804 649.874,379.804 
		649.874,415.381 649.874,417.381 649.872,418.073 650.474,418.42 698.625,446.221 700.357,447.221 700.956,447.566 
		701.556,447.221 734.646,428.116 733.448,426.037 	"/>
	<polygon points="668.466,351.125 699.824,333.021 700.957,332.367 748.508,359.821 748.508,359.821 749.64,360.474 749.64,396.421 
		752.04,396.421 752.04,361.781 752.04,359.781 752.041,359.089 751.439,358.742 749.707,357.742 749.707,357.742 703.289,330.942 
		703.289,330.941 701.557,329.942 700.957,329.596 700.358,329.942 698.625,330.941 698.626,330.942 667.267,349.046 	"/>
	<rect x="782.977" y="417.524" transform="matrix(0.4996 -0.8663 0.8663 0.4996 14.167 897.7833)" width="2.4" height="38.21"/>
	<path d="M338.787,186.755c0,8.945,5,14.551,12.988,14.551c7.988,0,12.988-5.605,12.988-14.551c0-8.945-5-14.57-12.988-14.57
		C343.787,172.185,338.787,177.81,338.787,186.755z M361.151,186.755c0,6.933-3.613,11.309-9.375,11.309
		c-5.762,0-9.375-4.375-9.375-11.309c0-6.953,3.613-11.328,9.375-11.328C357.537,175.427,361.151,179.802,361.151,186.755z"/>
	<polygon points="391.264,200.837 391.264,172.653 387.748,172.653 387.748,184.841 372.28,184.841 372.28,172.653 368.764,172.653 
		368.764,200.837 372.28,200.837 372.28,188.005 387.748,188.005 387.748,200.837 	"/>
	<path d="M259.087,383.848c7.988,0,12.988-5.605,12.988-14.551c0-8.945-5-14.57-12.988-14.57c-7.988,0-12.988,5.625-12.988,14.57
		C246.099,378.242,251.099,383.848,259.087,383.848z M259.087,357.969c5.762,0,9.375,4.375,9.375,11.328
		c0,6.934-3.613,11.309-9.375,11.309c-5.762,0-9.375-4.375-9.375-11.309C249.712,362.344,253.326,357.969,259.087,357.969z"/>
	<path d="M451.542,201.306c7.988,0,12.988-5.606,12.988-14.551c0-8.945-5-14.57-12.988-14.57c-7.988,0-12.988,5.625-12.988,14.57
		C438.554,195.701,443.554,201.306,451.542,201.306z M451.542,175.427c5.762,0,9.375,4.375,9.375,11.328
		c0,6.934-3.613,11.309-9.375,11.309c-5.762,0-9.375-4.375-9.375-11.309C442.167,179.802,445.78,175.427,451.542,175.427z"/>
	<polygon points="491.03,200.837 491.03,172.654 487.515,172.654 487.515,184.841 472.046,184.841 472.046,172.654 468.53,172.654 
		468.53,200.837 472.046,200.837 472.046,188.005 487.515,188.005 487.515,200.837 	"/>
	<polygon points="559.081,252.148 558.906,252.148 543.476,230.019 540.058,230.019 540.058,258.203 543.535,258.203 
		543.535,236.152 543.71,236.152 559.14,258.203 562.558,258.203 562.558,230.019 559.081,230.019 	"/>
	<polygon points="585.542,242.207 570.074,242.207 570.074,230.019 566.558,230.019 566.558,258.203 570.074,258.203 
		570.074,245.371 585.542,245.371 585.542,258.203 589.058,258.203 589.058,230.019 585.542,230.019 	"/>
	<path d="M451.542,402.585c-7.988,0-12.988,5.625-12.988,14.57c0,8.945,5,14.551,12.988,14.551c7.988,0,12.988-5.606,12.988-14.551
		C464.53,408.21,459.53,402.585,451.542,402.585z M451.542,428.464c-5.762,0-9.375-4.375-9.375-11.309
		c0-6.953,3.613-11.328,9.375-11.328c5.762,0,9.375,4.375,9.375,11.328C460.917,424.089,457.303,428.464,451.542,428.464z"/>
	<polygon points="487.514,415.241 472.046,415.241 472.046,403.054 468.53,403.054 468.53,431.237 472.046,431.237 472.046,418.405 
		487.514,418.405 487.514,431.237 491.03,431.237 491.03,403.054 487.514,403.054 	"/>
	<path d="M222.455,407.652c-7.988,0-12.988,5.625-12.988,14.57c0,8.945,5,14.551,12.988,14.551s12.988-5.605,12.988-14.551
		C235.443,413.277,230.443,407.652,222.455,407.652z M222.455,433.531c-5.762,0-9.375-4.375-9.375-11.309
		c0-6.953,3.613-11.328,9.375-11.328s9.375,4.375,9.375,11.328C231.83,429.156,228.217,433.531,222.455,433.531z"/>
	<path d="M378.342,444.131c-7.988,0-12.988,5.625-12.988,14.57c0,8.945,5,14.551,12.988,14.551c7.988,0,12.988-5.606,12.988-14.551
		C391.33,449.756,386.33,444.131,378.342,444.131z M378.342,470.01c-5.762,0-9.375-4.375-9.375-11.309
		c0-6.953,3.613-11.328,9.375-11.328c5.762,0,9.375,4.375,9.375,11.328C387.717,465.635,384.103,470.01,378.342,470.01z"/>
	<path d="M216.018,401.228l-11.43-31.445l-0.683-1.88l-0.197-0.545l-0.551-0.184l-53.781-17.981l-11.317-53.735h0l-0.288-1.365
		l0.926-1.046l36.841-41.643l0.442-0.498l-0.191-0.64l-16.237-54.446l42.638-36.121l46.221,33.516l7.2-12.471l-52.283-23.336
		l0-54.829v-1.307l47.55-27.453l0,0l1.133-0.654l1.133,0.654l0,0l46.419,26.8l0,0l1.732,1l0.599,0.346l0.6-0.346l1.732-1l0,0
		l47.552-27.454l47.552,27.454l0,0l1.732,1l0.599,0.346l0.599-0.346l1.732-1l0,0l47.552-27.454l47.551,27.454l0,0l1.132,0.653v1.307
		v53.6v2l-0.001,0.693l0.602,0.347l49.282,28.453l0,35.947h2.4l0-29.961l33.64-19.422l-1.199-2.079l-32.441,18.73v-1.908v-2
		l0.001-0.693l-0.602-0.347l-1.732-1l0,0l-1.651-0.953l32.44-18.729l-1.199-2.079l-33.641,19.423l-42.299-24.421l48.083-27.761
		l-1.199-2.079l-48.084,27.761V102.58v-2l0.001-0.693l-0.602-0.347l-1.732-1l0,0l-46.419-26.8l-1.732-1l-0.599-0.346l-0.599,0.346
		l-1.732,1l-47.552,27.454l-48.615-28.068l5.932-56.947h-14.4l5.932,56.947L303.026,98.54l0,0l-1.133,0.654l-1.133-0.654l0,0
		l-46.419-26.8l0,0l-1.732-1l-0.599-0.346l-0.599,0.346l-1.732,1l0,0l-46.419,26.8l0,0l-1.732,1l-0.6,0.345v0.695l0,57.044
		l-43.123,36.532l-39.789-5.944v14.4l39.307-5.872l15.596,52.296h0l0.381,1.278l-0.884,0.999l0,0l-36.841,41.643l-0.4,0.453
		l0.125,0.591l11.87,56.363l0.142,0.672l0.652,0.218l1.897,0.634l50.64,16.931v0l1.347,0.45l0.485,1.335l11.431,31.445
		L216.018,401.228z M158.177,195.411L158.177,195.411L158.177,195.411L158.177,195.411z"/>
	<path d="M601.191,143.385c-7.988,0-12.988,5.625-12.988,14.57s5,14.551,12.988,14.551c7.988,0,12.988-5.605,12.988-14.551
		S609.18,143.385,601.191,143.385z M601.191,169.264c-5.762,0-9.375-4.375-9.375-11.309c0-6.953,3.613-11.328,9.375-11.328
		c5.762,0,9.375,4.375,9.375,11.328C610.566,164.889,606.953,169.264,601.191,169.264z"/>
	<path d="M81.254,262.563c-7.988,0-12.988,5.625-12.988,14.57c0,8.945,5,14.551,12.988,14.551c7.988,0,12.988-5.606,12.988-14.551
		C94.242,268.188,89.242,262.563,81.254,262.563z M81.254,288.442c-5.762,0-9.375-4.375-9.375-11.309
		c0-6.953,3.613-11.328,9.375-11.328c5.762,0,9.375,4.375,9.375,11.328C90.629,284.067,87.016,288.442,81.254,288.442z"/>
	<path d="M100.577,180.616c-7.988,0-12.988,5.625-12.988,14.57c0,8.945,5,14.551,12.988,14.551c7.988,0,12.988-5.605,12.988-14.551
		C113.565,186.241,108.566,180.616,100.577,180.616z M100.577,206.495c-5.762,0-9.375-4.375-9.375-11.309
		c0-6.953,3.613-11.328,9.375-11.328c5.762,0,9.375,4.375,9.375,11.328C109.952,202.12,106.339,206.495,100.577,206.495z"/>
	<polygon points="71.084,146.728 71.738,147.859 71.738,147.859 88.2,176.374 90.279,175.175 76.156,150.712 96.608,115.288 
		94.529,114.089 74.77,148.312 73.817,146.661 73.817,146.661 72.817,144.929 72.472,144.328 71.777,144.328 69.777,144.328 
		67.87,144.328 87.629,110.104 85.55,108.905 65.099,144.328 14.177,144.328 14.177,146.728 69.777,146.728 	"/>
	<path d="M288.905,157.955c0,8.945,5,14.551,12.988,14.551c7.988,0,12.988-5.605,12.988-14.551c0-8.945-5-14.57-12.988-14.57
		C293.905,143.385,288.905,149.01,288.905,157.955z M301.893,146.627c5.762,0,9.375,4.375,9.375,11.328
		c0,6.934-3.613,11.309-9.375,11.309c-5.762,0-9.375-4.375-9.375-11.309C292.518,151.002,296.131,146.627,301.893,146.627z"/>
	<polygon points="284.905,172.037 284.905,143.853 281.389,143.853 281.389,156.041 265.92,156.041 265.92,143.853 262.405,143.853 
		262.405,172.037 265.92,172.037 265.92,159.205 281.389,159.205 281.389,172.037 	"/>
	<path d="M100.577,109.971c7.988,0,12.988-5.605,12.988-14.551s-5-14.57-12.988-14.57c-7.988,0-12.988,5.625-12.988,14.57
		S92.589,109.971,100.577,109.971z M100.577,84.092c5.762,0,9.375,4.375,9.375,11.328c0,6.934-3.613,11.309-9.375,11.309
		c-5.762,0-9.375-4.375-9.375-11.309C91.202,88.467,94.816,84.092,100.577,84.092z"/>
	<path d="M152.244,86.106c7.988,0,12.988-5.606,12.988-14.551c0-8.945-5-14.57-12.988-14.57c-7.988,0-12.988,5.625-12.988,14.57
		C139.256,80.5,144.256,86.106,152.244,86.106z M152.244,60.226c5.762,0,9.375,4.375,9.375,11.328
		c0,6.934-3.613,11.309-9.375,11.309c-5.762,0-9.375-4.375-9.375-11.309C142.869,64.602,146.482,60.226,152.244,60.226z"/>
	<polygon points="144.51,40.152 159.978,40.152 159.978,52.984 163.494,52.984 163.494,24.801 159.978,24.801 159.978,36.988 
		144.51,36.988 144.51,24.801 140.994,24.801 140.994,52.984 144.51,52.984 	"/>
	<polygon points="608.964,338.549 608.789,338.549 593.359,316.42 589.941,316.42 589.941,344.604 593.418,344.604 593.418,322.553 
		593.593,322.553 609.023,344.604 612.441,344.604 612.441,316.42 608.964,316.42 	"/>
	<polygon points="662.324,373.404 662.324,345.22 658.847,345.22 658.847,367.349 658.672,367.349 643.242,345.22 639.824,345.22 
		639.824,373.404 643.3,373.404 643.3,351.353 643.476,351.353 658.906,373.404 	"/>
	<polygon points="758.613,424.95 758.437,424.95 743.008,402.821 739.59,402.821 739.59,431.004 743.066,431.004 743.066,408.954 
		743.242,408.954 758.672,431.004 762.09,431.004 762.09,402.821 758.613,402.821 	"/>
</g>
</svg>
